…
    ## ── Conflicts ─────────────────────────────────────────── tidyverse_conflicts() ──
    ## ✖ dplyr::filter() masks stats::filter()
    ## ✖ dplyr::lag()    masks stats::lag()

``` r
library(p8105.datasets)
data("brfss_smart2010")
brfss<-janitor::clean_names(brfss_smart2010) #clean names
brfss<-rename(brfss,state=locationabbr,location=locationdesc) # use appropriate variable names
brfss<-filter(brfss,topic == "Overall Health") # fiocusing on Overall Health
brfss<-filter(brfss,response=="Excellent"|response=="Very good"|response=="Good"|response=="Fair"|response=="Poor") #Keep responses required
mutate(brfss,response=as.factor(brfss$response)) 
```

    ## # A tibble: 10,625 x 23
    ##     year state location class topic question response sample_size
    ##    <int> <chr> <chr>    <chr> <chr> <chr>    <fct>          <int>
    ##  1  2010 AL    AL - Je… Heal… Over… How is … Excelle…          94
    ##  2  2010 AL    AL - Je… Heal… Over… How is … Very go…         148
    ##  3  2010 AL    AL - Je… Heal… Over… How is … Good             208
    ##  4  2010 AL    AL - Je… Heal… Over… How is … Fair             107
    ##  5  2010 AL    AL - Je… Heal… Over… How is … Poor              45
    ##  6  2010 AL    AL - Mo… Heal… Over… How is … Excelle…          91
    ##  7  2010 AL    AL - Mo… Heal… Over… How is … Very go…         177
    ##  8  2010 AL    AL - Mo… Heal… Over… How is … Good             224
    ##  9  2010 AL    AL - Mo… Heal… Over… How is … Fair             120
    ## 10  2010 AL    AL - Mo… Heal… Over… How is … Poor              66
    ## # ... with 10,615 more rows, and 15 more variables: data_value <dbl>,
    ## #   confidence_limit_low <dbl>, confidence_limit_high <dbl>,
    ## #   display_order <int>, data_value_unit <chr>, data_value_type <chr>,
    ## #   data_value_footnote_symbol <chr>, data_value_footnote <chr>,
    ## #   data_source <chr>, class_id <chr>, topic_id <chr>, location_id <chr>,
    ## #   question_id <chr>, respid <chr>, geo_location <chr>
…
